<?xml version="1.0" standalone="no"?>
<!DOCTYPE svg PUBLIC "-//W3C//DTD SVG 20010904//EN"
 "http://www.w3.org/TR/2001/REC-SVG-20010904/DTD/svg10.dtd">
<svg version="1.0" xmlns="http://www.w3.org/2000/svg"
 width="700.000000pt" height="700.000000pt" viewBox="0 0 700.000000 700.000000"
 preserveAspectRatio="xMidYMid meet">
<metadata>
Created by potrace 1.11, written by Peter Selinger 2001-2013
</metadata>
<g transform="translate(0.000000,700.000000) scale(0.100000,-0.100000)"
fill="#000000" stroke="none">
<path d="M3364 6993 c-8 -6 -11 -341 -11 -1169 l0 -1162 1719 0 c945 0 1720 4
1723 8 3 4 -16 59 -41 121 -299 745 -837 1361 -1534 1756 -177 100 -435 215
-600 268 -30 10 -71 23 -90 30 -68 24 -317 85 -407 99 -33 5 -116 19 -123 21
-3 1 -41 5 -85 10 -44 4 -89 10 -100 11 -50 8 -441 13 -451 7z"/>
<path d="M2555 6873 c-11 -3 -74 -23 -139 -45 -998 -331 -1784 -1070 -2170
-2037 -25 -63 -46 -118 -46 -122 0 -4 538 -7 1195 -7 l1195 0 0 1109 c0 610
-3 1108 -7 1108 -5 -1 -17 -4 -28 -6z"/>
<path d="M41 4001 c-17 -107 -20 -131 -28 -241 -12 -179 -6 -555 12 -649 1 -9
6 -43 10 -76 3 -32 8 -62 10 -65 1 -3 6 -27 9 -55 4 -27 9 -57 11 -65 2 -8 7
-31 10 -50 11 -63 63 -263 95 -365 134 -419 358 -827 644 -1173 98 -120 331
-353 450 -451 351 -292 767 -517 1212 -655 51 -15 240 -64 279 -72 11 -2 54
-10 95 -18 41 -9 93 -18 115 -21 22 -3 54 -8 70 -10 220 -37 688 -37 930 0 22
4 54 9 70 11 482 73 917 239 1380 527 110 68 283 199 409 311 156 137 381 379
474 510 28 39 31 46 15 47 -10 0 -621 2 -1358 3 -737 2 -1358 6 -1380 10 -436
71 -616 157 -775 371 -100 135 -163 322 -196 580 -11 85 -11 110 -13 896 l-1
767 -1269 0 -1270 0 -10 -67z"/>
<path d="M3356 4061 c-2 -3 -3 -355 -3 -781 0 -774 0 -776 22 -841 40 -120
118 -208 230 -259 73 -34 117 -42 215 -40 41 1 712 2 1492 2 l1416 1 35 91
c91 238 165 506 193 695 4 25 8 53 9 61 37 205 43 806 10 965 -3 11 -7 37 -10
59 -3 21 -7 42 -10 46 -6 9 -3594 11 -3599 1z"/>
</g>
</svg>
