<?xml version="1.0" encoding="iso-8859-1"?>
<!-- Generator: Adobe Illustrator 19.0.0, SVG Export Plug-In . SVG Version: 6.00 Build 0)  -->
<svg version="1.1" id="Capa_1" xmlns="http://www.w3.org/2000/svg" xmlns:xlink="http://www.w3.org/1999/xlink" x="0px" y="0px"
	 viewBox="0 0 512 512" style="enable-background:new 0 0 512 512;" xml:space="preserve">
<g>
	<g>
		<path style="fill:#e7b83c;" d="M138.667,0C132.779,0,128,4.779,128,10.667V96c0,5.888,4.779,10.667,10.667,10.667s10.667-4.779,10.667-10.667V10.667
			C149.333,4.779,144.555,0,138.667,0z"/>
	</g>
</g>
<g>
	<g>
		<path style="fill:#e7b83c;" d="M373.333,0c-5.888,0-10.667,4.779-10.667,10.667V96c0,5.888,4.779,10.667,10.667,10.667
			c5.888,0,10.667-4.779,10.667-10.667V10.667C384,4.779,379.221,0,373.333,0z"/>
	</g>
</g>
<g>
	<g>
		<path style="fill:#e7b83c;" d="M437.333,42.667h-32V96c0,17.643-14.357,32-32,32c-17.643,0-32-14.357-32-32V42.667H170.667V96c0,17.643-14.357,32-32,32
			c-17.643,0-32-14.357-32-32V42.667h-32C33.493,42.667,0,76.16,0,117.333v32h512v-32C512,76.16,478.507,42.667,437.333,42.667z"/>
	</g>
</g>
<g>
	<g>
		<path style="fill:#e7b83c;" d="M0,170.667v266.667C0,478.507,33.493,512,74.667,512h362.667C478.507,512,512,478.507,512,437.333V170.667H0z
			 M234.667,373.333c0,29.419-23.936,53.333-53.333,53.333S128,402.752,128,373.333c0-5.888,4.779-10.667,10.667-10.667
			s10.667,4.779,10.667,10.667c0,17.643,14.357,32,32,32c17.643,0,32-14.357,32-32c0-17.643-14.357-32-32-32H160
			c-5.888,0-10.667-4.779-10.667-10.667S154.112,320,160,320h21.333c17.643,0,32-14.357,32-32s-14.357-32-32-32
			c-17.643,0-32,14.357-32,32c0,5.888-4.779,10.667-10.667,10.667S128,293.888,128,288c0-29.397,23.936-53.333,53.333-53.333
			c29.397,0,53.333,23.936,53.333,53.333c0,17.408-8.405,32.939-21.355,42.667C226.261,340.395,234.667,355.925,234.667,373.333z
			 M373.333,426.667H288c-5.888,0-10.667-4.779-10.667-10.667c0-5.888,4.779-10.667,10.667-10.667h32V271.083l-24.448,24.469
			c-4.16,4.16-10.923,4.16-15.083,0c-4.16-4.16-4.16-10.923,0-15.083l42.667-42.667c3.072-3.051,7.659-3.989,11.627-2.304
			c3.968,1.621,6.571,5.525,6.571,9.835v160h32c5.888,0,10.667,4.779,10.667,10.667C384,421.888,379.221,426.667,373.333,426.667z"
			/>
	</g>
</g>
<g>
</g>
<g>
</g>
<g>
</g>
<g>
</g>
<g>
</g>
<g>
</g>
<g>
</g>
<g>
</g>
<g>
</g>
<g>
</g>
<g>
</g>
<g>
</g>
<g>
</g>
<g>
</g>
<g>
</g>
</svg>
