<?xml version="1.0" encoding="UTF-8" standalone="no"?>
<svg
   xmlns:dc="http://purl.org/dc/elements/1.1/"
   xmlns:cc="http://creativecommons.org/ns#"
   xmlns:rdf="http://www.w3.org/1999/02/22-rdf-syntax-ns#"
   xmlns:svg="http://www.w3.org/2000/svg"
   xmlns="http://www.w3.org/2000/svg"
   xmlns:sodipodi="http://sodipodi.sourceforge.net/DTD/sodipodi-0.dtd"
   xmlns:inkscape="http://www.inkscape.org/namespaces/inkscape"
   id="Capa_1"
   enable-background="new 0 0 512 512"
   height="150"
   viewBox="0 0 139.48125 150"
   width="139.48125"
   version="1.1"
   sodipodi:docname="calendar-two.svg"
   inkscape:version="1.0.2 (e86c870879, 2021-01-15, custom)">
  <metadata
     id="metadata23">
    <rdf:RDF>
      <cc:Work
         rdf:about="">
        <dc:format>image/svg+xml</dc:format>
        <dc:type
           rdf:resource="http://purl.org/dc/dcmitype/StillImage" />
        <dc:title></dc:title>
      </cc:Work>
    </rdf:RDF>
  </metadata>
  <defs
     id="defs21" />
  <sodipodi:namedview
     pagecolor="#ffffff"
     bordercolor="#666666"
     borderopacity="1"
     objecttolerance="10"
     gridtolerance="10"
     guidetolerance="10"
     inkscape:pageopacity="0"
     inkscape:pageshadow="2"
     inkscape:window-width="1920"
     inkscape:window-height="1001"
     id="namedview19"
     showgrid="false"
     fit-margin-top="0"
     fit-margin-left="0"
     fit-margin-right="0"
     fit-margin-bottom="0"
     inkscape:zoom="0.57314319"
     inkscape:cx="319.27583"
     inkscape:cy="302.98883"
     inkscape:window-x="-9"
     inkscape:window-y="-9"
     inkscape:window-maximized="1"
     inkscape:current-layer="Capa_1" />
  <g
     id="g16"
     transform="matrix(0.29296875,0,0,0.29296875,-5.259375,0)">
    <g
       id="g14">
      <path
         d="M 476.922,42.563 H 407.547 V 23.769 C 407.547,10.663 396.884,0 383.778,0 370.672,0 360.009,10.663 360.009,23.769 V 42.563 H 151.991 V 23.769 C 151.991,10.663 141.328,0 128.222,0 115.116,0 104.453,10.663 104.453,23.769 V 42.563 H 35.078 c -9.444,0 -17.126,7.683 -17.126,17.127 v 435.183 c 0,9.444 7.682,17.127 17.126,17.127 h 57.24 c 4.135,0 7.486,-3.352 7.486,-7.486 0,-4.134 -3.351,-7.486 -7.486,-7.486 h -57.24 c -1.187,0 -2.153,-0.966 -2.153,-2.154 v -365.87 h 367.132 c 4.135,0 7.486,-3.352 7.486,-7.486 0,-4.135 -3.351,-7.486 -7.486,-7.486 H 32.925 V 59.69 c 0,-1.188 0.966,-2.154 2.153,-2.154 h 69.375 v 13.017 c 0,13.106 10.663,23.769 23.769,23.769 13.106,0 23.769,-10.663 23.769,-23.769 V 57.536 h 208.018 v 13.017 c 0,13.106 10.663,23.769 23.769,23.769 13.106,0 23.769,-10.663 23.769,-23.769 V 57.536 h 69.375 c 1.187,0 2.153,0.967 2.153,2.154 v 54.342 h -44.387 c -4.135,0 -7.486,3.352 -7.486,7.486 0,4.134 3.351,7.486 7.486,7.486 h 44.387 v 365.869 c 0,1.188 -0.966,2.154 -2.153,2.154 H 126.94 c -4.135,0 -7.486,3.352 -7.486,7.486 0,4.134 3.351,7.487 7.486,7.487 h 349.982 c 9.444,0 17.126,-7.683 17.126,-17.127 V 59.69 c 0,-9.443 -7.682,-17.127 -17.126,-17.127 z m -339.903,27.99 c 0,4.85 -3.946,8.796 -8.797,8.796 -4.85,0 -8.796,-3.946 -8.796,-8.796 V 23.769 c 0,-4.851 3.946,-8.796 8.796,-8.796 4.851,0 8.797,3.946 8.797,8.796 z m 255.556,0 c 0,4.85 -3.946,8.796 -8.796,8.796 -4.851,0 -8.797,-3.946 -8.797,-8.796 V 23.769 c 0,-4.851 3.946,-8.796 8.797,-8.796 4.85,0 8.796,3.946 8.796,8.796 z"
         id="path2" />
      <path
         d="m 280.107,384.046 c -1.372,-3.337 -4.587,-5.493 -8.203,-5.493 -3.611,0.003 -6.827,2.165 -8.194,5.506 -0.022,0.056 -0.045,0.113 -0.066,0.169 L 240.879,444 c -1.472,3.864 0.468,8.189 4.331,9.66 3.863,1.472 8.189,-0.468 9.661,-4.331 l 3.833,-10.064 h 26.243 l 3.79,10.043 c 1.131,2.998 3.98,4.846 7.005,4.845 5.066,0 8.796,-5.381 7.003,-10.132 -0.06,-0.158 -22.558,-59.774 -22.558,-59.774 -0.026,-0.067 -0.052,-0.134 -0.08,-0.201 z m -15.7,40.247 7.479,-19.636 7.41,19.636 z"
         id="path4" />
      <path
         d="m 169.569,384.593 c -1.28,-3.811 -4.979,-6.285 -8.988,-6.016 -4.012,0.269 -7.344,3.214 -8.12,7.247 l -10.655,59.038 c -0.734,4.069 1.969,7.962 6.038,8.697 4.062,0.732 7.962,-1.969 8.697,-6.038 l 6.068,-33.625 10.018,33.954 c 0.026,0.089 0.053,0.176 0.083,0.264 1.215,3.616 4.583,6.038 8.395,6.038 h 0.045 c 3.83,-0.019 7.197,-2.479 8.379,-6.122 0.027,-0.085 0.054,-0.172 0.079,-0.258 l 9.67,-33.923 6.451,33.749 c 0.776,4.063 4.706,6.722 8.758,5.948 4.061,-0.776 6.724,-4.698 5.947,-8.758 l -11.303,-59.144 c -0.802,-3.94 -4.165,-6.849 -8.179,-7.075 -3.995,-0.225 -7.682,2.287 -8.922,6.112 -0.027,0.084 -0.053,0.17 -0.078,0.255 l -10.947,38.4 -11.351,-38.476 c -0.027,-0.091 -0.055,-0.179 -0.085,-0.267 z"
         id="path6" />
      <path
         d="m 343.526,454.151 h 0.019 c 4.126,0 7.477,-3.34 7.486,-7.469 l 0.07,-28.756 17.999,-27.649 c 2.256,-3.465 1.276,-8.103 -2.189,-10.358 -3.465,-2.254 -8.103,-1.276 -10.358,2.19 l -12.942,19.881 -13.086,-20.043 c -2.263,-3.462 -6.899,-4.435 -10.362,-2.175 -3.461,2.26 -4.436,6.899 -2.176,10.361 l 18.142,27.784 -0.07,28.73 c -0.01,4.134 3.333,7.494 7.467,7.504 z"
         id="path8" />
      <path
         d="m 227.186,341.777 c -17.359,0 -32.255,-12.939 -34.65,-30.098 -0.224,-1.611 -0.338,-3.256 -0.338,-4.89 0,-4.135 -3.351,-7.486 -7.486,-7.486 -4.135,0 -7.486,3.352 -7.486,7.486 0,2.323 0.162,4.664 0.482,6.959 3.422,24.515 24.692,43.001 49.479,43.001 27.548,0 49.96,-22.412 49.96,-49.96 0,-17.918 -9.486,-33.656 -23.695,-42.475 14.208,-8.819 23.695,-24.556 23.695,-42.474 0,-27.549 -22.412,-49.961 -49.96,-49.961 -23.821,0 -44.438,16.942 -49.024,40.285 -0.797,4.057 1.846,7.992 5.903,8.789 4.057,0.795 7.992,-1.846 8.789,-5.903 3.21,-16.339 17.648,-28.198 34.332,-28.198 19.292,0 34.988,15.695 34.988,34.988 0,19.292 -15.696,34.988 -34.988,34.988 -4.135,0 -7.486,3.352 -7.486,7.486 0,4.134 3.351,7.486 7.486,7.486 19.292,0 34.988,15.696 34.988,34.988 -0.002,19.294 -15.698,34.989 -34.989,34.989 z"
         id="path10" />
      <path
         d="m 327.29,171.88 h -21.542 c -4.135,0 -7.486,3.352 -7.486,7.486 0,4.134 3.351,7.486 7.486,7.486 h 14.055 v 162.411 c 0,4.135 3.351,7.486 7.486,7.486 4.135,0 7.486,-3.352 7.486,-7.486 V 179.366 c 0.001,-4.134 -3.35,-7.486 -7.485,-7.486 z"
         id="path12" />
    </g>
  </g>
</svg>
