<svg id="Icon-Edit" xmlns="http://www.w3.org/2000/svg" width="12" height="12" viewBox="0 0 12 12">
  <path id="Icon_material-edit" data-name="Icon material-edit" d="M4.5,14v2.5H7l7.372-7.372-2.5-2.5ZM16.305,7.191a.664.664,0,0,0,0-.94l-1.56-1.56a.664.664,0,0,0-.94,0l-1.22,1.22,2.5,2.5Z" transform="translate(-4.5 -4.496)" fill="#1C2F3C"/>
</svg>
